I;I;O
Openness;Neuroticism;MaxNeighbors
Negative;Negative;Small
Negative;Neutral;Small
Negative;Positive;Medium
Neutral;Negative;Medium
Neutral;Neutral;Medium
Neutral;Positive;Large
Positive;Negative;Medium
Positive;Neutral;Large
Positive;Positive;Large
