I;I;O;O
Goal Angle;Goal Distance;Direction;Speed
Large Positive;Near;Large Positive;Stop
Large Positive;Far;Large Positive;Slow
Small Positive;Near;Small Positive;Slow
Small Positive;Far;Small Positive;Slow
Zero;Near;Zero;Fast
Zero;Far;Zero;Fast
Small Negative;Near;Small Negative;Slow
Small Negative;Far;Small Negative;Slow
Large Negative;Near;Large Negative;Stop
Large Negative;Far;Large Negative;Slow