I;I;O
Extraversion;Agreeableness;Radius
Negative;Negative;Large
Negative;Neutral;Large
Negative;Positive;Medium
Neutral;Negative;Medium
Neutral;Neutral;Medium
Neutral;Positive;Small
Positive;Negative;Medium
Positive;Neutral;Small
Positive;Positive;Small
